{
  "name": "fake-news-detection",
  "version": 0.1,
  "update_timestamp": 1617272413,
  "policies": {
    "availability": "at least one",
    "verification": "input-output type match"
  },
  "dag": {
  # in principle this represents the whole workflow -- all the rest should be resolved dynamically...
  # names give should be unique identifiers by which services could be found on the platfrom
  # and their respective metadata and deployment details pulled in
      "fake_news_score" : ["uclnlp", "athene"],
      "athene" : ["stanford-nlp-stanza", "athene_system"],
      "athene_system": ["nlp-model"]
  },
	"services": {
    # the whole this entry should be resolved dynamically from dag;
    # combining service-definition.json files of each service in the application graph;
    # this data structure should serve as a basis for 'compolation' and type checking
    "name": "fake-news-score",
    "type": "SNet AI service",
    "role": "production",
    "image": "registry.gitlab.com/nunet/fake-news-detection/fake_news_score/fake_news_score:latest",
    "declarations": {
      "input": "..."
      "output": "..."
    }
    "services": [
				{
          "name":"uclnlp",
				  "type": "SNet AI service",
          "role": "inference"
        },
        {
          "name": "athene",
          "type": "SNet AI service",
          "role": "inference",
          "declarations": {
            "input": "..."
            "output": "..."
          },
          "image": "registry.gitlab.com/nunet/fake-news-detection/athene/athene_grpc:latest",
          "services": [
            {
              "name": "stanford-nlp-stanza",
              "type": "SNet AI service",
              "role": "model_training",
              "image": "registry.gitlab.com/nunet/fake-news-detection/athene/stanfordnlp:latest"
            },
            {
              "name": "athene_system",
              "type": "Third party service",
              "constraints": {
                "same_machine_as": "athene"
              },
              "image": "registry.gitlab.com/nunet/fake-news-detection/athene_system:latest",
              "services": [
                {
                  "name": "nlp-model",
                  "type": "data",
                  "role": "inference",
                  "image": "git://gitlab.com/nunet/fake-news-detection/data-storage/stanford-corenlp-full-2016-10-31.zip"
                }
              ]
            }
          ]
        }
      ]
    }
}
